{
  "description":"A Likert scale answer, with optional specifiers for some or all of the points.",
  "required":[
    "levels",
    "specifiers"
  ],
  "allOf": [
    {"$ref": "/response-areas/definitions/commonResponseAreaProperties.json"},
    {
      "properties": {
        "type": {
          "enum": [
            "likertResponseArea"
          ]
        },
        "autoSubmit": {
          "type": "boolean",
          "description": "Go straight to next page when a choice is selected [Default = false]"
        },
        "useEmoticons": {
          "type": "boolean",
          "description": "defaults to false.  If true, use emoticons instead of radio buttons.  Must have 5 Levels!"
        },
        "levels": {
          "type": "number",
          "multipleOf": 1,
          "description": "How many levels? E.g., if levels==3, then there are three choices: 0, 1, and 2."
        },
        "centerLabelAbove": {
          "type": "string",
          "description": "Label that is above the Likert scale and centered to indicate that it applies to all 'above' Likert labels."
        },
        "centerLabelBelow": {
          "type": "string",
          "description": "Label that is below the Likert scale and centered to indicate that it applies to all 'below' Likert labels."
        },
        "specifiers": {
          "type": "array",
          "items": {
            "properties": {
              "level": {
                "type": "number",
                "multipleOf": 1
              },
              "label": {
                "type": "string"
              },
              "position": {
                "type": "string",
                "enum": ["above", "below"],
                "description": "Position label above or below the slider? Default is above."
              }
            },
            "required": [
              "level",
              "label"
            ]
          }
        }
      }
    }
  ]
}