{
  "description": "Three digit test response area using the tablet audio output and calibrated headset.",
  "allOf": [
    {"$ref": "/response-areas/definitions/commonResponseAreaProperties.json"},
    {
      "properties": {
        "type": {
          "enum": [ "threeDigitTestResponseArea" ]
        },
        "skip": {
          "type": "boolean",
          "description": "Allows user to skip the response area [Default = false].  DEPRECATED - please use enableSkip"
        },
        "correct": {
          "type": "array",
          "description": "The three correct answers in an array of strings",
          "items": {
            "type": "string"
          }
        }
      }
    }
  ]
}