{
  "title": "TabSINT",
  "author": "Creare",
  "structure": {
    "summary": "DOCS.md"
  },
  "plugins": ["collapsible-chapters", "-sharing", "downloadpdf", "heading-anchors", "page-toc"],
  "pluginsConfig": {
    "collapsible-chapters":{},
    "page-toc": {
      "selector": ".markdown-section h1, .markdown-section h2, .markdown-section h3"
    },
    "downloadpdf": {
      "base": "https://creare-com.gitlab.io/tabsint/tabsint.pdf",
      "label": "Download PDF",
      "multilingual": false
    }
  }
}
