{
  "title":"Mock Protocol for Unit Testing Purposes Only",
  "subtitle":"For demonstration purposes only.",
  "instructionText":"Press the button that corresponds to the word embedded in the 'carrier phrase'.",
  "helpText":"Contact the exam administrator for assistance.",
  "js": ["customJs"],
  "minTabsintVersion": "99.99.99",
  "navMenu":[
    {
      "text": "Back to Main Menu",
      "target": {
        "reference": "MainMenu"
      },
      "returnHereAfterward": false
    },
    {
      "text": "Go to Children's",
      "target": {
        "reference":"SurveyA"
      },
      "returnHereAfterward": false
    },
    {
      "text": "Go to Adults, then end",
      "target": {
        "reference": "SurveyB"
      },
      "returnHereAfterward": false
    },
    {
      "text": "Go to Adults, Come back here",
      "target": {
        "reference": "SurveyB"
      },
      "returnHereAfterward": true
    }
  ],
  "headset":"VicFirth",
  "hideProgressBar":false,
  "calibration": [
    {
      "wavfiles": [
        "chirpFullScaleWRTRef.wav"
      ]
    }
  ],
  "pages":[
    {
      "id":"question1",
      "questionMainText":"How many years of service do you have?",
      "responseArea":{
        "type":"integerResponseArea"
      }
    },
    {
      "id":"multichoice001",
      "title":"Multiple Choice 1",
      "instructionText":"Respond as appropriate. There is no wrong answer.",
      "responseArea":{
        "type":"multipleChoiceResponseArea",
        "choices":[
          {
            "id":"A",
            "text":"Choice A"
          },
          {
            "id":"B",
            "text":"Choice B"
          }
        ]
      }
    },
    {
      "id":"ref2",
      "reference":"respareas_prot1"
    },
    {
      "id":"ref_timeout",
      "reference":"prot_timeout"
    },
    {
      "id":"prot_subprot_1pg_timeout",
      "reference":"prot_subprot_1pg_timeout"
    },
    {
      "id":"prot_subprot_1pg_timeout_is_over"
    },
    {
      "id":"ref_followOns",
      "reference":"prot_followOns"
    },
    {
      "id":"ref_special_end_subprot",
      "reference":"ref_special_end_subprot"
    },
    {
      "id":"ref_special_end_all",
      "reference":"ref_special_end_all"
    },
    {
      "id":"ref_skip_page",
      "reference":"ref_skip_page"
    },
    {
      "id":"ref_repeat",
      "reference":"prot_repeat"
    },
    {
      "id":"ref_navigation",
      "reference":"prot_navigation"
    },
    {
      "id": "ref_advanced_protocol",
      "reference":"prot_advanced_protocol"
    },
    {
      "id":"ref1",
      "reference":"prot_MRT"
    },
    {
      "id":"info002",
      "title":"No Response Area 2",
      "instructionText":"Just press 'next' to continue."
    }
  ],
  "subProtocols":[
    {
      "protocolId":"prot_repeat",
      "title":"Repeat Questions",
      "timeout":{
        "nMaxPages":5
      },
      "pages":[
        {
          "id":"repeat01",
          "title":"Multiple Choice 1 With Repeats",
          "instructionText":"Respond as appropriate. There is no wrong answer.  But the question will repeat if you choose A.",
          "responseArea":{
            "type":"multipleChoiceResponseArea",
            "choices":[
              {
                "id":"A",
                "text":"Choice A"
              },
              {
                "id":"B",
                "text":"Choice B"
              }
            ]
          },
          "repeatPage":{
            "nRepeats":2,
            "repeatIf":"result.response!=='B'"
          }
        },
        {
          "id":"repeat02",
          "title":"Multiple Choice 2 With Repeats",
          "instructionText":"Respond as appropriate. There is no wrong answer.  The question will repeat 3 times no matter what.",
          "responseArea":{
            "type":"multipleChoiceResponseArea",
            "choices":[
              {
                "id":"1",
                "text":"Choice 1"
              },
              {
                "id":"3",
                "text":"Choice 3"
              }
            ]
          },
          "repeatPage":{
            "nRepeats":3
          }
        },
        {
          "id":"repeat03",
          "title":"Multiple Choice 2 With Repeats",
          "instructionText":"Respond as appropriate. There is no wrong answer.  The question will repeat if you choose x, up to 2 times!",
          "responseArea":{
            "type":"multipleChoiceResponseArea",
            "choices":[
              {
                "id":"x",
                "text":"Choice x"
              },
              {
                "id":"y",
                "text":"Choice y"
              }
            ]
          },
          "repeatPage":{
            "repeatIf":"result.response==='x'"
          }
        },
        {
          "id":"repeat04",
          "responseArea":{
            "type":"integerResponseArea"
          }
        },
        {
          "id":"repeat05",
          "title":"Multiple Choice 5 With Repeats",
          "instructionText":"Respond as appropriate. There is no wrong answer.  The question will repeat 3 times no matter what.",
          "responseArea":{
            "type":"multipleChoiceResponseArea",
            "choices":[
              {
                "id":"5",
                "text":"Choice 5"
              },
              {
                "id":"6",
                "text":"Choice 6"
              }
            ]
          },
          "repeatPage":{
            "nRepeats":5
          }
        }
      ]
    },
    {
      "protocolId":"prot_navigation",
      "title":"Navigation",
      "enableBackButton": true,
      "pages":[
        {
          "protocolId":"MainMenu",
          "title":"main menu",
          "pages":[
            {
              "id":"choose",
              "title":"Wireless Headset Fit and Comfort Survey",
              "questionMainText":"Please select a survey",
              "hideProgressBar":true,
              "responseArea":{
                "type":"multipleChoiceResponseArea",
                "choices":[
                  {
                    "id":"Survey A: Youth Wearers"
                  },
                  {
                    "id":"Survey B: Adult Wearers"
                  },
                  {
                    "id":"Survey C: Kangaroo Wearers"
                  }
                ]
              },

              "followOns":[
                {
                  "conditional":"result.response=='Survey A: Youth Wearers'",
                  "target":{
                    "reference":"SurveyA"
                  }
                },
                {
                  "conditional":"result.response=='Survey B: Adult Wearers'",
                  "target":{
                    "reference":"SurveyB"
                  }
                },
                {
                  "conditional":"result.response=='Survey C: Kangaroo Wearers'",
                  "target":{
                    "reference":"SurveyC"
                  }
                }
              ]
            }
          ]
        },
        {
          "protocolId":"SurveyA",
          "exclusiveTimingMode":true,
          "title": "SURVEY A: FOR YOUTH WEARERS",
          "helpText": "The survey consists of a series of questions asking you to either rate statements from strongly disagree to strongly agree or fill in the blank. Your answers should reflect your feelings and opinions. Therefore, there are no right or wrong answers, so please answer honestly.",
          "enableBackButton": true,
          "pages":[
            {
              "id": "infoSurveyA",
              "questionMainText": "SURVEY A: FOR YOUTH WEARERS",
              "instructionText": "Please enter the appropriate response (Strongly Disagree...Strongly Agree) for each statement that best describes your feelings and/or opinions.",
              "submitText": "Begin"
            },
            {
              "id": "questionA1",
              "questionMainText": "It was easy for the person to put the headset on me.",
              "responseArea": {
                "type": "likertResponseArea",
                "useEmoticons": true,
                "levels": 5,
                "specifiers": [
                  {
                    "level": 0,
                    "label": "Strongly Disagree"
                  },
                  {
                    "level": 1,
                    "label": "Disagree"

                  },
                  {
                    "level": 2,
                    "label": "No Opinion"
                  },
                  {
                    "level": 3,
                    "label": "Agree"

                  },
                  {
                    "level": 4,
                    "label": "Strongly Agree"
                  }
                ]

              }
            },
            {
              "id": "questionA2",
              "questionMainText": "another likert.",
              "responseArea": {
                "type": "likertResponseArea",
                "useEmoticons": true,
                "levels": 5,
                "specifiers": [
                  {
                    "level": 0,
                    "label": "Strongly Disagree"
                  },
                  {
                    "level": 1,
                    "label": "Disagree"

                  },
                  {
                    "level": 2,
                    "label": "No Opinion"
                  },
                  {
                    "level": 3,
                    "label": "Agree"

                  },
                  {
                    "level": 4,
                    "label": "Strongly Agree"
                  }
                ]

              }
            }

          ]
        },
        {
          "protocolId":"SurveyB",
          "exclusiveTimingMode":true,
          "title": "SURVEY B: FOR ADULT WEARERS",
          "helpText": "The survey consists of a series of questions asking you to either rate statements from strongly disagree to strongly agree or fill in the blank. Your answers should reflect your feelings and opinions. Therefore, there are no right or wrong answers, so please answer honestly.",
          "pages":[
            {
              "id": "infoSurveyB",
              "questionMainText": "SURVEY B: FOR ADULT WEARERS",
              "instructionText": "Please enter the appropriate response (Strongly Disagree...Strongly Agree) for each statement that best describes your feelings and/or opinions.",
              "submitText": "Begin"
            },
            {
              "id": "questionB1",
              "questionMainText": "It was easy for the person to put the headset on me.",
              "responseArea": {
                "type": "likertResponseArea",
                "levels": 5,
                "specifiers": [
                  {
                    "level": 0,
                    "label": "Strongly Disagree"
                  },
                  {
                    "level": 1,
                    "label": "Disagree"

                  },
                  {
                    "level": 2,
                    "label": "No Opinion"
                  },
                  {
                    "level": 3,
                    "label": "Agree"

                  },
                  {
                    "level": 4,
                    "label": "Strongly Agree"
                  }
                ]

              }
            },
            {
              "id": "questionB2",
              "questionMainText": "another likert.",
              "responseArea": {
                "type": "likertResponseArea",
                "levels": 5,
                "specifiers": [
                  {
                    "level": 0,
                    "label": "Strongly Disagree"
                  },
                  {
                    "level": 1,
                    "label": "Disagree"

                  },
                  {
                    "level": 2,
                    "label": "No Opinion"
                  },
                  {
                    "level": 3,
                    "label": "Agree"

                  },
                  {
                    "level": 4,
                    "label": "Strongly Agree"
                  }
                ]

              }
            }
          ]
        },
        {
          "protocolId":"SurveyC",
          "exclusiveTimingMode":true,
          "enableBackButton": false,
          "title": "SURVEY C: FOR KANGAROO WEARERS",
          "helpText": "The survey consists of a series of questions asking you to either rate statements from strongly disagree to strongly agree or fill in the blank. Your answers should reflect your feelings and opinions. Therefore, there are no right or wrong answers, so please answer honestly.",
          "pages":[
            {
              "id": "infoSurveyC",
              "questionMainText": "SURVEY C: FOR KANGAROO WEARERS",
              "instructionText": "Please enter the appropriate response (Strongly Disagree...Strongly Agree) for each statement that best describes your feelings and/or opinions.",
              "submitText": "Begin"
            },
            {
              "id": "infoSurveyC2",
              "questionMainText": "SURVEY c2: FOR KANGAROO WEARERS",
              "instructionText": "Please enter the appropriate response (Strongly Disagree...Strongly Agree) for each statement that best describes your feelings and/or opinions.",
              "submitText": "Begin"
            }
          ]
        }
      ]
    },
    {
      "protocolId":"prot_MRT",
      "title":"MRT Sub-Exam",
      "pages":[
        {
          "id":"mrt001",
          "title":"MRT: Presentation 1",
          "wavfiles":[
            {
              "path":"chirpFullScaleWRTRef.wav",
              "targetSPL":"65.0"
            },
            {
              "path":"chirpFullScaleWRTRef.wav",
              "targetSPL":"60.0"
            }
          ],
          "responseArea":{
            "type":"mrtResponseArea",
            "choices":[
              {
                "id":"BIG"
              },
              {
                "id":"DIG",
                "correct":true
              },
              {
                "id":"FIG"
              },
              {
                "id":"PIG"
              },
              {
                "id":"RIG"
              },
              {
                "id":"WIG"
              }
            ]
          }
        },
        {
          "id":"mrt002",
          "title":"MRT: Presentation 2",
          "wavfiles":[
            {
              "path":"chirpFullScaleWRTRef.wav",
              "targetSPL":"65.0"
            }
          ],
          "responseArea":{
            "type":"mrtResponseArea",
            "choices":[
              {
                "id":"SIG"
              },
              {
                "id":"DIG"
              },
              {
                "id":"FIG",
                "correct":true
              },
              {
                "id":"PIG"
              },
              {
                "id":"RIG"
              },
              {
                "id":"JIG"
              }
            ]
          }
        },
        {
          "id":"mrt003",
          "wavfiles":[
            {
              "path":"chirpFullScaleWRTRef.wav",
              "targetSPL":"65.0"
            }
          ],
          "responseArea":{
            "type":"mrtResponseArea",
            "choices":[
              {
                "id":"PIG",
                "correct":true
              },
              {
                "id":"RIG"
              },
              {
                "id":"FIG"
              },
              {
                "id":"SIG"
              },
              {
                "id":"DIG"
              },
              {
                "id":"JIG"
              }
            ]
          }
        }
      ]
    },
    {
      "protocolId":"respareas_prot1",
      "pages":[
        {
          "id":"yn001",
          "title":"Yes/No: Presentation 1",
          "questionMainText":"Is the sky blue?",
          "questionSubText":"Relatively speaking of course...",
          "responseArea":{
            "type":"yesNoResponseArea"
          }
        },
        {
          "id":"mc001",
          "title":"MultiChoice: Presentation 1",
          "questionMainText":"The sky is what color?",
          "questionSubText":"Don't nit-pick...",
          "responseArea":{
            "type":"multipleChoiceResponseArea",
            "choices":[
              {
                "id":"Red"
              },
              {
                "id":"Blue",
                "correct":true
              },
              {
                "id":"Falling"
              },
              {
                "id":"na",
                "text":"None of the Above."
              }
            ]
          }
        },
        {
          "id":"mc002",
          "title":"MultiChoice: Presentation 2 with Other",
          "questionMainText":"The sky is what color?",
          "questionSubText":"Don't nit-pick...",
          "responseArea":{
            "type":"multipleChoiceResponseArea",
            "choices":[
              {
                "id":"Red"
              },
              {
                "id":"Blue",
                "correct":true
              },
              {
                "id":"Falling"
              }
            ],
            "other":"Another Color..."
          }
        },
        {
          "id":"btngrid001",
          "responseArea":{
            "type":"buttonGridResponseArea",
            "rows": [
              {
                "choices":[
                  {
                    "id":"A",
                    "text":"A",
                    "correct":true
                  },
                  {
                    "id":"B"
                  }
                ]
              },
              {
                "choices": [
                  {
                    "id":"C"
                  },
                  {
                    "id":"D"
                  }
                ]
              }
            ]
          }
        },
        {
          "id":"imagemap001",
          "responseArea": {
            "type":"imageMapResponseArea",
            "image": {
              "path": "gnomes.jpg"
            },
            "hotspots":[
              {
                "id": "Rec",
                "shape": "rect",
                "coordinates": "0,0,40,40",
                "correct": true
              },
              {
                "id": "Def",
                "shape": "default"
              },
              {
                "id": "Poly",
                "shape": "poly",
                "coordinates": "80, 0, 100, 0, 100, 20, 60, 20"
              },
              {
                "id": "Circ",
                "shape":"circle",
                "coordinates": "50, 50, 20"
              }
            ]
          }
        },

        {
          "id": "cb001",
          "title": "Checkbox: Presentation 1",
          "questionMainText": "What is the dumbest color?",
          "questionSubText": "You can choose none or more than one.",
          "responseArea": {
            "type": "checkboxResponseArea",
            "choices": [
              {
                "id": "Red"
              },
              {
                "id": "Clear"
              },
              {
                "id": "Plaid"
              }
            ]
          },
          "followOns":[
            {
              "conditional":"arrayContains(result.response, 'Blue')",
              "target":{
                "id":"yn021",
                "questionMainText":"How in the world did you type 'blue'?",
                "responseArea":{
                  "type":"yesNoResponseArea"
                }
              }
            }
          ]
        },
        {
          "id": "cb002",
          "title": "Checkbox: Presentation 2",
          "questionMainText": "What is the dumbest color?",
          "questionSubText": "You can choose none or more than one.",
          "responseArea": {
            "type": "checkboxResponseArea",
            "responseRequired":true,
            "choices": [
              {
                "id": "Red"
              },
              {
                "id": "Clear",
                "correct": true
              },
              {
                "id": "Plaid"
              }
            ],
            "other" : "Some other color."
          }
        },
        {
          "id":"int001",
          "title":"Integer Choice: Presentation 1",
          "questionMainText":"How old are you?",
          "questionSubText":"Enter zero (0) if you're prefer not to answer.",
          "responseArea":{
            "type":"integerResponseArea",
            "minAllowedValue":0,
            "maxAllowedValue":120
          }
        },
        {
          "id":"likert001",
          "title":"Likert: Presentation 1",
          "questionMainText":"How good is ice cream?",
          "responseArea":{
            "type":"likertResponseArea",
            "levels":5,
            "specifiers":[
              {
                "level":0,
                "label":"It's awful!"
              },
              {
                "level":2,
                "position":"above",
                "label":"It's acceptable."
              },
              {
                "level":4,
                "label":"It's THAT good.",
                "position":"below"
              }
            ]
          }
        },
        {
          "id":"omt001",
          "title":"OMT",
          "responseArea":{
            "type":"omtResponseArea",
            "correct": "Alan bought some big beds."
          }
        },
        {
          "id": "custom001",
          "responseArea": {
            "type": "customResponseArea",
            "html": "customHtml.html"
          }
        },
        {
          "id": "custom002",
          "responseArea": {
            "type": "customResponseArea",
            "html": "customHtml2.html"
          }
        },
        {
          "id":"omt002",
          "title":"OMT",
          "responseArea":{
            "type":"omtResponseArea",
            "language":"american",
            "correct": "Doris bought nineteen large sofas."
          }
        },
        {
          "id":"omt003",
          "title":"OMT-3",
          "responseArea":{
            "type": "multipleChoiceSelectionResponseArea",
            "feedback":"showCorrect",
            "columnLabels":["here", "are", "four", "columns"],
            "rows":
            [["Allen", "bought", "two", "chairs."],
             ["Doris", "gives", "three", "desks."],
             ["Kathy", "got", "four", "flowers."],
             ["Lucy", "has", "seven", "houses."],
             ["Nina", "kept", "eight", "rings."],
             ["Peter", "ordered", "nine", "sofas."],
             ["Rachel", "prefers", "twelve", "spoons."],
             ["Steven", "sees", "fifteen", "tables."],
             ["Thomas", "sold", "nineteen", "toys."],
             ["William", "wants", "sixty", "windows."]],
            "correct":"Steven sees seven sofas",
            "audiometryDefaultText": true
          }
        }
      ]
    },
    {
      "protocolId":"prot_timeout",
      "pages":[
        {
          "id":"yn001",
          "responseArea":{
            "type":"yesNoResponseArea"
          }
        },
        {
          "protocolId":"timeout_prot1",
          "timeout":{
            "nMaxPages":2,
            "nMaxSeconds":600
          },
          "pages":[
            {
              "id":"yn002",
              "responseArea":{
                "type":"yesNoResponseArea"
              }
            },
            {
              "id":"yn003",
              "responseArea":{
                "type":"yesNoResponseArea"
              }
            },
            {
              "id":"yn004",
              "responseArea":{
                "type":"yesNoResponseArea"
              }
            }
          ]
        },
        {
          "id":"yn005",
          "responseArea":{
            "type":"yesNoResponseArea"
          }
        }
      ]
    },
    {"protocolId":"prot_2pg_test_prot",
      "pages":[
        {
          "id":"yn001",
          "responseArea":{
            "type":"yesNoResponseArea"
          }
        },
        {
          "id":"yn002",
          "responseArea":{
            "type":"yesNoResponseArea"
          }
        }
      ]
    },
    {
      "protocolId":"prot_subprot_1pg_timeout",
      "randomization":"WithoutReplacement",
      "timeout":{
        "nMaxPages":1
      },
      "pages":[
        {
          "reference":"prot_2pg_test_prot"
        },
        {
          "reference":"prot_2pg_test_prot"
        },
        {
          "reference":"prot_2pg_test_prot"
        }
      ]
    },
    {
      "protocolId":"prot_followOns",
      "pages":[
        {
          "id":"yn011",
          "questionMainText":"Would you like a follow-on?",
          "responseArea":{
            "type":"yesNoResponseArea"
          },
          "setFlags":[
            {
              "id":"DO_FOLLOW_ON",
              "conditional":"result.response == 'y'"
            }
          ],
          "followOns":[
            {
              "conditional":"flags.DO_FOLLOW_ON",
              "target":{
                "id":"yn012",
                "questionMainText":"Are you enjoying this follow-on?",
                "wavfiles":[
                  {
                    "path":"chirpFullScaleWRTRef.wav",
                    "targetSPL":"80"
                  }
                ],
                "responseArea":{
                  "type":"yesNoResponseArea"
                }
              }
            }
          ]
        },
        {
          "id":"yn013",
          "questionMainText":"Would you NOT like a follow-on?",
          "responseArea":{
            "type":"yesNoResponseArea"
          },
          "followOns":[
            {
              "conditional":"result.response=='n'",
              "target":{
                "id":"ref1",
                "reference":"prot_MRT"
              }
            },
            {
              "conditional":"flags.DO_FOLLOW_ON",
              "target":{
                "id":"yn015",
                "questionMainText":"Can you confirm that you initially wanted a follow-on?",
                "responseArea":{
                  "type":"yesNoResponseArea"
                }
              }
            }
          ]
        }
      ]
    },
    {
      "protocolId":"ref_special_end_subprot",
      "pages":[
        {
          "id":"yn001",
          "responseArea":{
            "type":"yesNoResponseArea"
          }
        },
        {
          "protocolId":"ref_special_end_subprot_sub",
          "timeout":{
            "nMaxPages":2,
            "nMaxSeconds":600
          },
          "pages":[
            {
              "id":"yn002",
              "responseArea":{
                "type":"yesNoResponseArea"
              }
            },
            {
              "id":"esp001",
              "reference": "@END_SUBPROTOCOL"
            },
            {
              "id":"yn004",
              "responseArea":{
                "type":"yesNoResponseArea"
              }
            }
          ]
        },
        {
          "id":"yn005",
          "responseArea":{
            "type":"yesNoResponseArea"
          }
        }
      ]
    },
    {
      "protocolId":"ref_special_end_all",
      "pages":[
        {
          "id":"yn007",
          "responseArea":{
            "type":"yesNoResponseArea"
          }
        },
        {
          "protocolId":"ref_special_end_all_sub",
          "timeout":{
            "nMaxPages":2,
            "nMaxSeconds":600
          },
          "pages":[
            {
              "id":"yn002",
              "responseArea":{
                "type":"yesNoResponseArea"
              }
            },
            {
              "id":"esp001",
              "reference": "@END_ALL"
            },
            {
              "id":"yn004",
              "responseArea":{
                "type":"yesNoResponseArea"
              }
            }
          ]
        },
        {
          "id":"yn005",
          "responseArea":{
            "type":"yesNoResponseArea"
          }
        }
      ]
    },
    {
      "protocolId":"prot_advanced_protocol",
      "pages":[
        {
          "id":"ap_multichoice001",
          "title":"Multiple Choice 1",
          "instructionText":"Respond as appropriate. There is no wrong answer.",
          "responseArea":{
            "type":"multipleChoiceResponseArea",
            "choices":[
              {
                "id":"A"
              },
              {
                "id":"B"
              }
            ]
          }
        },
        {
          "id":"ap_q2",
          "title":"ap question 2",
          "instructionText":"Respond as appropriate. There is no wrong answer.",
          "preProcessFunction":"preProcessFunction1"
        }
      ]
    },
    {
      "protocolId":"ref_skip_page",
      "pages":[
        {
          "id":"yn001",
          "responseArea":{
            "type":"yesNoResponseArea"
          },
          "setFlags":[
            {
              "conditional":"result.response === 'yes'",
              "id":"skip1"
            }
          ]
        },
        {
          "id":"yn002",
          "skipIf":"flags.skip1",
          "responseArea":{
            "type":"yesNoResponseArea"
          }
        },
        {
          "id":"yn003",
          "responseArea":{
            "type":"yesNoResponseArea"
          }
        },
        {
          "protocolId":"ref_special_end_subprot_sub",
          "timeout":{
            "nMaxPages":2,
            "nMaxSeconds":600
          },
          "pages":[
            {
              "id":"yn002",
              "responseArea":{
                "type":"yesNoResponseArea"
              }
            },
            {
              "id":"esp001",
              "reference": "@END_SUBPROTOCOL"
            },
            {
              "id":"yn004",
              "responseArea":{
                "type":"yesNoResponseArea"
              }
            }
          ]
        },
        {
          "id":"yn005",
          "responseArea":{
            "type":"yesNoResponseArea"
          }
        }
      ]
    },
    {
      "protocolId":"@PARTIAL",
      "pages":[
        {
          "id":"partial001",
          "questionMainText":"This should only be shown if a partial exam is submitted.",
          "responseArea":{
            "type":"yesNoResponseArea"
          }
        },
        {
          "id":"partial002",
          "questionMainText":"This should happen next, and then it should submit.",
          "responseArea":{
            "type":"yesNoResponseArea"
          }
        }
      ]
    }
  ]
}
