{
  "description": "CHA - DPOAE.",
  "properties": {
    "type": {
      "enum": [ "chaDPOAE"]
    },
    "skip": {
      "type": "boolean",
      "description": "Allows user to skip the response area [Default = false]"
    },
    "autoSubmit": {
      "type": "boolean",
      "description": "Go straight to next page once this page is complete [Default = false]"
    },
    "autoBegin": {
      "type": "boolean",
      "description": "Go straight into exam, without having to press the 'Begin' button [Default = false]"
    },
    "examInstructions": {
      "type": "string",
      "description": "Replaces the top-level instruction text on the CHA exam pages (each page after starting page)"
    },
    "measureBackground": {
      "enum": ["ThirdOctaveBands"],
      "description": "Measure background during DPOAE"
    },
    "plotProperties": {
      "type": "object",
      "description": "DPOAE plot properties",
      "properties": {
        "displayDPOAE": {
          "type": "array",
          "items": {
            "enum": ["DPOAE"]
          }
        }
      }
    },
    "examProperties": {
      "properties": {
        "BlockSize": {
          "type": "integer",
          "description": "Smaller for probe screener."
        },"F1": {
          "type": "number",
          "description": "Frequency 1."
        },
        "F2": {
          "type": "number",
          "description": "Frequency 2"
        },
        "L1": {
          "type": "number",
          "description": "Level 1."
        },
        "L2": {
          "type": "number",
          "description": "Level 2"
        },
        "MinTestAverages": {
          "type": "number",
          "description": "Minimum test average"
        },
        "MaxTestAverages": {
          "type": "number",
          "description": "Maximum Test Average"
        }
      }
    }
  }
}