{
  "description": "CHA - HINT exam",
  "properties": {
    "type": {
      "enum": ["chaHINT"]
    },
    "skip": {
      "type": "boolean",
      "description": "Allows user to skip the response area",
      "default": false
    },
    "autoSubmit": {
      "type": "boolean",
      "description": "Go straight to next page once this page is complete",
      "default": false
    },
    "autoBegin": {
      "type": "boolean",
      "description": "Go straight into exam, without having to press the 'Begin' button",
      "default": false
    },
    "examInstructions": {
      "type": "string",
      "description": "Replaces the top-level instruction text on the CHA exam pages (each page after starting page)"
    },
    "measureBackground": {
      "type": "string",
      "description": "Method to measure background noise after an audiometry exam, optional",
      "enum": ["ThirdOctaveBands"]
    },
    "examProperties": {
      "type": "object",
      "properties": {
        "Language": {
          "type": "string",
          "description": "Target material type",
          "default": "english",
          "enum": ["english", "mandarin","military","swahili"]
        },
        "IsPractice": {
          "type": "boolean",
          "description": "Exam or practice",
          "default": false
        },
        "Direction": {
          "type": "string",
          "description": "Noise direction",
          "default": "front",
          "enum": ["front", "left", "right", "quiet"]
        },
        "NoiseLevel": {
          "type": "number",
          "description": "Absolute level at which noise is played, in dBA SPL",
          "default": 65,
          "minimum": 0,
          "maximum": 85
        },
        "InitialStepSize": {
          "type": "number",
          "description": "Change in SNR for first 4 presenations, in dB",
          "default": 2,
          "minimum": 0,
          "maximum": 20
        },
        "StepSize": {
          "type": "number",
          "description": "Change in SNR after each response, in dB",
          "default": 2,
          "minimum": 0,
          "maximum": 20
        },
        "InitialSNR": {
          "type": "number",
          "description": "SNR for the first presentation, in dB",
          "default": "NaN",
          "maximum": 20,
          "minimum": -20
        },
        "ListNumber": {
          "type": "number",
          "description": "One-based index of the list to use. The value 0 represents the default behavior, which is to select the list randomly.",
          "default": 0,
          "minimum": 0,
          "maximum": 12
        },
        "NumberOfPresentations": {
          "type": "number",
          "description": "Number of presentations",
          "default": 20,
          "maximum": 150,
          "minimum": 1
        },
        "DisableRepeatFirstUntilCorrect": {
          "type": "boolean",
          "description": "By default, this exam will repeat the first presentation until the subject gets it correct. If this field is set to true, the exam will not repeat the first presentation until the subject gets it correct.",
          "default": false
        }
      }
    }
  }
}