{
  "title": "Protocol en Français",
  "subtitle": "Questionnaire et Endroits de Réponse",
  "helpText": "Text d'Aide à fin de Démonstration",
  "js": ["customJs.js"],
  "enableBackButton": true,
  "minTabsintVersion": "0.7.1",
    "navMenu":[
    {
      "text": "Retour au Menu Principal",
      "target": {
        "reference": "MainMenu"
      },
      "returnHereAfterward": false
    }
  ],
  "pages": [
    {
      "protocolId":"MainMenu",
      "title":"Menu Principal",
      "pages":[
        {
          "id":"Choisir",
          "title":"Demonstration",
          "questionMainText":"Choisir le 'Questionnaire' pour une traduction complète SVP.",
          "hideProgressBar":true,
          "responseArea":{
            "type":"multipleChoiceResponseArea",
            "choices":[
              {
                "id":"Questionnaire"
              },
              {
                "id":"Questions Adaptives"
              },
              {
                "id":"Questions Audio"
              },
              {
                "id":"Finir et Soumettre"
              }
            ]
          },

          "followOns":[
            {
              "conditional":"result.response=='Questionnaire'",
              "target":{
                "reference":"Questionnaire"
              }
            },
            {
              "conditional":"result.response=='Adaptive Questions'",
              "target":{
                "reference":"AdaptiveQuestions"
              }
            },
            {
              "conditional":"result.response=='Audio Questions'",
              "target":{
                "reference":"AudioQuestions"
              }
            },
            {
              "conditional":"result.response=='Finish and Submit'",
              "target":{
                "reference":"@END_ALL"
              }
            }
          ]
        }
      ]
    }
  ],
  "subProtocols":[
    {
      "protocolId":"@PARTIAL",
      "pages":[
        {
          "id":"partial001",
          "questionMainText":"Ceci devrait seulement apparaître si un examen partiel est soumis.",
          "responseArea":{
            "type":"yesNoResponseArea"
          }
        },
        {
          "id":"partial002",
          "questionMainText":"Ceci devrait apparaître ensuite, puis l'examen devraît être soumis.",
          "responseArea":{
            "type":"yesNoResponseArea"
          }
        }
      ]
    },
    {
      "protocolId": "Questionnaire",
      "title":"Questionnaire",
      "pages":[
        {
          "id": "identificateurSujet",
          "title": "Identification du sujet",
          "questionMainText": "Inscrivez l'identificateur du sujet",
          "questionSubText": "",
          "responseArea": {
            "type": "subjectIdResponseArea"
          }
        },
        {
          "id": "multiligne",
          "title": "Plusieurs endroits de réponse",
          "questionMainText": "Inscrivez les réponses associées à ce test.",
          "responseArea": {
            "type": "multipleInputResponseArea",
            "verticalSpacing": 15,
            "textAlign": "left",
            "inputList":[
              {
                "text": "Âge du sujet"
              },
              {
                "text": "Identificateur du sujet"
              },
              {
                "text": "Lieu du test"
              },
              {
                "text": "Nom de l'Administrateur"
              },
              {
                "inputType": "number",
                "text": "Entrée de données numériques"
              },
              {
                "inputType": "dropdown",
                "options": [1,2,3,4,5,6,7,8,9],
                "text": "Options Multiples"
              },
              {
                "text": "Autres données importantes"
              },
              {
                "inputType": "dropdown",
                "options": [1,2,3,4,5,6,7,8,9],
                "text": "....."
              }
            ]
          }
        },
        {
          "id":"choixmultiple001",
          "questionMainText":"Quelle catégorie correspond le mieux à votre environnement de travail:",
          "responseArea":{
            "type":"multipleChoiceResponseArea",
            "choices":[
              {
                "id":"Armes de combat démontées",
                "correct": true
              },
              {
                "id":"Armes de combat montées"
              },
              {
                "id":"Police militaire"
              },
              {
                "id":"Aviation (équipage)"
              },
              {
                "id":"Aviation (entretien)"
              },
              {
                "id":"Commande and Controlle"
              },
              {
                "id":"Naval (surface ou sous-marine)"
              },
              {
                "id":"Support (logistique, medicale, etc.)"
              }
            ]
          }
        },
        {
          "id": "terminerOuRetour",
          "title": "Terminer",
          "questionMainText": "Terminer et soumettre les résultats ou retourner au menu principal?",
          "responseArea":{
            "type":"multipleChoiceResponseArea",
            "choices":[
              {
                "id":"Terminer l'Examen"
              },
              {
                "id":"Retour au Menu Principal"
              }
            ]
          },
          "followOns":[
            {
              "conditional":"result.response=='Back to Main Menu'",
              "target":{
                "reference":"MainMenu"
              }
            }
          ]
        }
      ]
    },
    {
      "protocolId": "AdaptiveQuestions",
      "title": "Adaptive Logic Questions",
      "pages":[
        {
          "id":"repeat01",
          "title":"Multiple Choice With Repeats",
          "questionMainText": "Repeated questions",
          "instructionText":"The question will repeat up to 2 times if you choose 'A'. The question will not repeat if you choose 'B'",
          "responseArea":{
            "type":"multipleChoiceResponseArea",
            "choices":[
              {
                "id":"A",
                "text":"Choice A"
              },
              {
                "id":"B",
                "text":"Choice B"
              }
            ]
          },
          "repeatPage":{
            "nRepeats":2,
            "repeatIf":"result.response!=='B'"
          }
        },
        {
          "id": "custom001",
          "title": "Custom HTML and JS",
          "questionMainText": "Custom Response Area",
          "responseArea": {
            "type": "customResponseArea",
            "html": "customHtml.html"
          }
        },
        {
          "id":"preprocess",
          "title":"Preprocessing Functions",
          "questionMainText":"Preprocessing Functions",
          "questionSubText":"You can run a pre-processing function on the test data before loading a page",
          "instructionText":"",
          "preProcessFunction": "preprocessExample"
        },
        {
          "id":"multichoice001",
          "title":"Progress Bar",
          "instructionText":"You can change the progress bar using pre-processing functions. Your response here will set the progress bar on the next page.",
          "responseArea":{
            "type":"multipleChoiceResponseArea",
            "choices":[
              {
                "id":"A",
                "text":"make it a fraction string"
              },
              {
                "id":"B",
                "text":"Jump to 80%"
              }
            ]
					}
				},
        {
          "id":"multichoice002",
          "title":"Progress Bar",
          "instructionText":"The progress bar should have changed to your choice",
          "preProcessFunction": "multichoice002"
        },
        {
          "id": "finishOrGoBack",
          "title": "finish choice",
          "questionMainText": "Finish and submit exam or go back to Main Menu?",
          "responseArea":{
            "type":"multipleChoiceResponseArea",
            "choices":[
              {
                "id":"Finish Exam"
              },
              {
                "id":"Back to Main Menu"
              }
            ]
          },
          "followOns":[
            {
              "conditional":"result.response=='Back to Main Menu'",
              "target":{
                "reference":"MainMenu"
              }
            }
          ]
        }
      ]
    },
    {
      "protocolId": "AudioQuestions",
      "title":"Questions with Audio",
      "pages":[
        {
          "id": "CRMgrid001",
          "title": "CRM Response Area",
          "questionMainText": "Coordinate Response Measures",
          "questionSubText": "This response is automatically submitted <br> The correct answer is 'Blue 2' ",
          "responseArea": {
            "type": "crmResponseArea",
            "correct": "Blue 2",
            "verticalSpacing": 30,
            "horizontalSpacing": 10
          }
        },
        {
          "id":"mrt01",
          "title": "MRT Response Area",
          "questionMainText":"MRT Response Area",
          "questionSubText":"Please identify which of these six words was spoken by the talker.  The correct word is 'meat'",
          "responseArea":{
            "type":"mrtResponseArea",
            "choices":[
              {
                "id":"meat",
                "correct":true
              },
              {
                "id":"seat"
              },
              {
                "id":"feat"
              },
              {
                "id":"beat"
              },
              {
                "id":"heat"
              },
              {
                "id":"neat"
              }
            ]
          }
        },
        {
          "id": "multipleChoiceSelection",
          "title": "Multiple Choice Selection",
          "questionMainText": "Multiple Choice Selection",
          "responseArea": {
            "type": "multipleChoiceSelectionResponseArea",
            "rows": [["test", "test", "test"], ["three", "three", "three"], ["and", "four", "rows"], ["long", "for", "testing"]],
            "columnLabels": ["My"," Column", "Labels"],
            "correct": "test four testing",
            "feedback": "showCorrect"
          }
        },
        {
          "id": "omt001",
          "title": "OMT Response Area",
          "questionMainText": "OMT Response Area",
          "questionSubText": "This version will not show correct answers",
          "responseArea": {
            "type": "omtResponseArea",
            "correct": "Alan bought some big beds."
          }
        },
        {
          "id": "omt001",
          "title": "OMT Response Area",
          "questionMainText": "OMT Response Area",
          "questionSubText": "This version will show the correct responses <br> The correct phrase is: 'Alan bought some big beds'",
          "responseArea": {
            "type": "omtResponseArea",
            "correct": "Alan bought some big beds.",
						"feedback": "showCorrect"
          }
        },
        {
          "id": "quicksin",
          "questionMainText": "QuickSIN Example",
          "questionSubText": "Select INCORRECT words.",
          "responseArea": {
            "type": "checkboxResponseArea",
            "buttonScheme": "markIncorrect",
            "choices": [
              {
                "id": "WHITE"
              },
              {
                "id": "SILK"
              },
              {
                "id": "JACKET"
              },
              {
                "id": "ANY"
              },
              {
                "id": "SHOES"
              }
            ],
            "verticalSpacing": 20
          },
          "submitText": "Next"
        },
        {
          "id": "finishOrGoBack",
          "title": "finish choice",
          "questionMainText": "Finish and submit exam or go back to Main Menu?",
          "responseArea":{
            "type":"multipleChoiceResponseArea",
            "choices":[
              {
                "id":"Finish Exam"
              },
              {
                "id":"Back to Main Menu"
              }
            ]
          },
          "followOns":[
            {
              "conditional":"result.response=='Back to Main Menu'",
              "target":{
                "reference":"MainMenu"
              }
            }
          ]
        }
      ]
    }
  ]
}
