{
  "title": "Tone Generation",
  "subtitle": "",
  "instructionText": "",
  "helpText": "",
  "minTabsintVersion": "1.4.0",
  "pages": [
    {
      "id": "ManualToneGeneration",
      "title": "Manual Tone Generation",
      "questionMainText": "",
      "helpText": "",
      "responseArea": {
        "type": "chaManualToneGeneration",
        "minLevel": 0,
        "maxLevel": 120,
        "presentationList": [
          {
            "F": 500
          },
          {
            "F": 1000
          },
          {
            "F": 2000
          },
          {
            "F": 3000
          },
          {
            "F": 4000
          },
          {
            "F": 6000
          },
          {
            "F": 8000
          }
        ],
        "commonPresentationProperties": {
          "Level": 60,
          "ToneDuration": 10000
        }
      }
    }
  ]
}