{
  "title":"A Simple Exam With a Custom Function to Set the Progress Bar",
  "pages":[
    {
      "id":"multichoice001",
      "title":"Multiple Choice 1",
        "questionMainText":"Sample question.",
        "responseArea":{
          "type":"yesnoResponseArea"
        },
      "preProcessFunction": "calculateProgress"
    }
  ]
}